<?xml version="1.0"?>
<svg xmlns="http://www.w3.org/2000/svg" viewBox="0 0 90 90">
  <defs>
    <style>
      line,
      path,
      rect
      {
        fill: none;
        stroke: #C70D2C;
        stroke-width: 2px;
      }

      line,
      path
      {
        stroke-miterlimit: 10;
      }

      rect
      {
        stroke-linejoin: round;
      }
    </style>
  </defs>
  <path d="M27,31V19.32A18.22,18.22,0,0,1,45,1h0A18.22,18.22,0,0,1,63,19.32V31"/>
  <rect x="9" y="31" width="72" height="58"/>
  <line x1="9" y1="80" x2="81" y2="80"/>
  <path d="M52,51.11a7,7,0,1,0-10.5,6.15v7.18a3.5,3.5,0,1,0,7,0V57.26A7.12,7.12,0,0,0,52,51.11Z"/>
</svg>
